<?xml version="1.0" encoding="UTF-8" standalone="no"?>
<svg
   version="1.0"
   width="512"
   height="512"
   viewBox="0 0 512 512"
   preserveAspectRatio="xMidYMid"
   id="svg85"
   sodipodi:docname="vectoriced_paiseando_logo.svg"
   inkscape:version="1.3.2 (091e20ef0f, 2023-11-25)"
   inkscape:export-filename="logo192.png"
   inkscape:export-xdpi="36"
   inkscape:export-ydpi="36"
   xmlns:inkscape="http://www.inkscape.org/namespaces/inkscape"
   xmlns:sodipodi="http://sodipodi.sourceforge.net/DTD/sodipodi-0.dtd"
   xmlns="http://www.w3.org/2000/svg"
   xmlns:svg="http://www.w3.org/2000/svg">
  <defs
     id="defs85" />
  <sodipodi:namedview
     id="namedview85"
     pagecolor="#ffffff"
     bordercolor="#000000"
     borderopacity="0.25"
     inkscape:showpageshadow="2"
     inkscape:pageopacity="0.0"
     inkscape:pagecheckerboard="0"
     inkscape:deskcolor="#d1d1d1"
     inkscape:zoom="1"
     inkscape:cx="252"
     inkscape:cy="220.5"
     inkscape:window-width="1366"
     inkscape:window-height="700"
     inkscape:window-x="0"
     inkscape:window-y="0"
     inkscape:window-maximized="1"
     inkscape:current-layer="svg85" />
  <g
     id="g2">
    <g
       id="g1"
       transform="matrix(0.98691597,0,0,0.98598336,-2.42995,-3.6693221)">
      <g
         fill="#f69b29"
         id="g11"
         transform="matrix(1,0,0,1.0096638,-2.6232049e-8,-0.00583601)">
        <path
           d="M 181.35,507.35 C 168.65,503.55 166,502.6 166.1,501.9 166.2,501.45 92.396145,449.71313 91.496145,448.81313 66.440145,286.48872 62.510216,150.94744 54.5,139 71.671787,118.81562 77.981014,112.36194 93.3,97.95 105.55,86.5 146.65,44.8 160.8,29.5 c 16.5,-17.8 17.6,-18.85 21.9,-22 2.3,-1.65 6.17207,-3.622488 6.95323,-3.8025346 0.74215,3.4111879 1.31833,6.0765471 2.09677,9.0525346 2.65103,10.793654 2.17804,24.326856 3.76824,71.404022 4.8938,103.053848 5.46826,153.498948 5.23176,256.595978 -0.25,110.95 -0.45,139 -1.25,154.15 -0.45,8.25 -1.55,15.8 -2.45,16.7 -0.15,0.15 -7.2,-1.75 -15.7,-4.25 z"
           id="path2"
           sodipodi:nodetypes="ccccccccccccsc" />
        <path
           d="m 161.9,501.45 c -1.45,-0.8 -1.05,-1.45 0.85,-1.45 1.4,0 1.75,0.2 1.75,1 0,1.1 -1.2,1.3 -2.6,0.45 z"
           id="path3" />
        <path
           d="m 152.15,497.75 c -2.15,-0.9 -2.1,-1.75 0.1,-1.75 1.55,0 1.75,0.15 1.75,1.25 0,0.7 -0.05,1.25 -0.1,1.25 -0.1,-0.05 -0.9,-0.35 -1.75,-0.75 z"
           id="path4" />
        <path
           d="m 132.9,488.6 c -1.85,-1.1 -1.75,-1.6 0.35,-1.6 1.55,0 1.75,0.15 1.75,1.25 0,1.45 -0.3,1.5 -2.1,0.35 z"
           id="path5" />
        <path
           d="m 96,463.5 -1.75,-1.45 1.9,-0.05 c 1.75,0 1.85,0.1 1.85,1.5 0,0.85 -0.05,1.5 -0.15,1.5 -0.05,0 -0.9,-0.65 -1.85,-1.5 z"
           id="path6" />
        <path
           d="m 84,453 -1.75,-1.45 1.9,-0.05 c 1.75,0 1.85,0.1 1.85,1.5 0,0.85 -0.05,1.5 -0.15,1.5 -0.05,0 -0.9,-0.65 -1.85,-1.5 z"
           id="path7" />
        <path
           d="m 36.35,395.55 c -1.1,-1.9 -1.1,-2.05 0.4,-2.05 1.1,0 1.25,0.2 1.25,1.75 0,2.15 -0.5,2.2 -1.65,0.3 z"
           id="path8" />
        <path
           d="m 21.8,368.05 c -0.15,-0.2 -0.5,-1 -0.75,-1.75 -0.5,-1.2 -0.4,-1.3 0.7,-1.3 1.1,0 1.25,0.2 1.25,1.75 0,1.65 -0.6,2.3 -1.2,1.3 z"
           id="path9" />
        <path
           d="m 14.3,348.55 c -0.15,-0.2 -0.5,-1 -0.75,-1.75 -0.5,-1.2 -0.4,-1.3 0.7,-1.3 1.1,0 1.25,0.2 1.25,1.75 0,1.65 -0.6,2.3 -1.2,1.3 z"
           id="path10" />
        <path
           d="m 6.5,230.9 c 0,-1.5 0.65,-2.9 1.3,-2.9 0.45,0 0.7,0.6 0.7,1.75 0,1.4 -0.2,1.75 -1,1.75 -0.55,0 -1,-0.3 -1,-0.6 z"
           id="path11" />
      </g>
      <g
         fill="#c7aa37"
         id="g29"
         transform="matrix(1,0,0,1.0096638,-2.6232049e-8,-0.00583601)">
        <path
           d="m 238.15,517.3 c -1.75,-0.85 -1.4,-1.8 0.6,-1.8 1.55,0 1.75,0.15 1.75,1.25 0,1.35 -0.55,1.45 -2.35,0.55 z"
           id="path12" />
        <path
           d="m 220.4,515.65 c -1.65,-0.4 -1,-1.65 0.85,-1.65 1.4,0 1.75,0.2 1.75,1 0,1 -0.7,1.15 -2.6,0.65 z"
           id="path13" />
        <path
           d="m 216.4,515.15 c -1.65,-0.4 -1,-1.65 0.85,-1.65 1.4,0 1.75,0.2 1.75,1 0,1 -0.7,1.15 -2.6,0.65 z"
           id="path14" />
        <path
           d="m 210,514.25 c -0.4,-0.1 -1.6,-0.3 -2.6,-0.5 -1.2,-0.2 -1.9,-0.55 -1.9,-1 0,-0.85 0.55,-0.9 4.4,-0.45 2.1,0.3 2.6,0.5 2.6,1.25 0,0.9 -0.6,1.05 -2.5,0.7 z"
           id="path15" />
        <path
           d="m 195.55,511.65 c -0.85,-0.15 -1,-0.35 -0.6,-0.65 0.75,-0.45 2.55,-7.45 2.55,-10 0,-2.55 0.5,-4 1.4,-4 0.65,0 0.7,0.6 0.45,3.9 -0.3,3.95 -1.8,11.15 -2.3,11.05 -0.15,-0.05 -0.85,-0.2 -1.5,-0.3 z"
           id="path16" />
        <path
           d="m 198,491.15 c 0,-3.1 0.45,-4.65 1.3,-4.65 0.55,0 0.7,0.85 0.7,3.5 0,3.15 -0.1,3.5 -1,3.5 -0.85,0 -1,-0.35 -1,-2.35 z"
           id="path17" />
        <path
           d="m 198.5,473.9 c 0,-5.8 0.3,-7.4 1.3,-7.4 0.55,0 0.7,1.25 0.7,6.25 0,5.9 -0.05,6.25 -1,6.25 -0.95,0 -1,-0.35 -1,-5.1 z"
           id="path18" />
        <path
           d="m 199,327.9 c 0,-9.25 0.2,-10.9 1.3,-10.9 0.55,0 0.7,1.8 0.7,9.75 0,9.4 -0.05,9.75 -1,9.75 -0.95,0 -1,-0.35 -1,-8.6 z"
           id="path19" />
        <path
           d="m 199.3,254.4 c -0.15,-0.65 -0.3,-4.3 -0.3,-8.15 0,-7.6 0.25,-9.25 1.3,-9.25 0.55,0 0.7,1.7 0.7,9.25 0,7.55 -0.15,9.25 -0.7,9.25 -0.35,0 -0.8,-0.5 -1,-1.1 z"
           id="path20" />
        <path
           d="m 199.5,232.9 c 0,-2.4 0.5,-3.9 1.3,-3.9 0.5,0 0.7,0.75 0.7,2.75 0,2.4 -0.1,2.75 -1,2.75 -0.8,0 -1,-0.35 -1,-1.6 z"
           id="path21" />
        <path
           d="m 200.25,214.4 c 0,-6.7 -0.4,-18.55 -0.85,-26.4 -1.05,-17.2 -2.04202,-55.77822 -3.44974,-83.03306 C 194.52007,66.262495 193.8993,37.07404 189.63807,3.6916455 204.33783,17.463489 216.32568,30.619322 229.2,44.5 c 9.55,10.3 29.7,32.2 44.75,48.6 l 23.88743,20.75057 c 1.12386,3.53609 -13.47149,14.07258 -26.80571,29.77166 C 222.25474,199.45701 201.35,226.5 200.8,226.5 c -0.4,0 -0.55,-3.5 -0.55,-12.1 z"
           id="path22"
           sodipodi:nodetypes="scccccccss" />
        <path
           d="m 376,148.5 c 0,-1.5 0,-1.5 1.25,-0.7 0.65,0.4 1.45,0.65 1.75,0.45 0.3,-0.15 0.5,0.15 0.5,0.7 0,0.85 -0.3,1.05 -1.75,1.05 -1.6,0 -1.75,-0.1 -1.75,-1.5 z"
           id="path23" />
        <path
           d="M 350.65,124.25 C 350.3,123.85 350,122.8 350,121.9 v -1.65 l 1.4,1.5 c 2.85,3.15 2.9,3.25 1.3,3.25 -0.8,-0.05 -1.75,-0.35 -2.05,-0.75 z"
           id="path24" />
        <path
           d="m 342.5,114.2 c 0,-1.95 0.45,-1.9 2,0.3 l 1.05,1.5 h -1.5 c -1.45,0 -1.55,-0.15 -1.55,-1.8 z"
           id="path25" />
        <path
           d="m 309.75,115 c 0.15,-0.25 0.95,-0.95 1.75,-1.5 l 1.5,-1.05 v 1.5 c 0,1.45 -0.15,1.55 -1.8,1.55 -1,0 -1.65,-0.2 -1.45,-0.5 z"
           id="path26" />
        <path
           d="m 337,108.2 c 0,-1.95 0.45,-1.9 2,0.3 l 1.05,1.5 h -1.5 c -1.45,0 -1.55,-0.15 -1.55,-1.8 z"
           id="path27" />
        <path
           d="m 317.75,107.7 c 1.9,-1.7 2,-1.7 2.15,-0.7 0.3,1.9 -0.25,2.5 -2.25,2.5 l -1.9,-0.05 z"
           id="path28" />
        <path
           d="m 323.25,102.5 c 0.15,-0.25 0.95,-0.95 1.75,-1.5 l 1.5,-1.05 v 1.5 c 0,1.45 -0.15,1.55 -1.8,1.55 -1,0 -1.65,-0.2 -1.45,-0.5 z"
           id="path29" />
      </g>
      <g
         fill="#e74b37"
         id="g30"
         transform="matrix(1,0,0,1.0096638,-2.6232049e-8,-0.00583601)">
        <path
           d="M 160.25,500.8 C 148.15,496.4 139.65,492.45 128,485.75 109.55,475.15 93.7,462.75 76.25,445.3 34.95,403.95 10.9,357.2 4.3,305.25 1.25,281.45 2.05,252.9 6.3,232 9.65,215.65 21.15,187 30.15,172.7 32.6,168.8 53.7,139.8 55.5,137.8 67.76623,153.99599 82.83713,168.30978 97,183 c 33.2051,35.94937 74.86145,69.98353 102.41099,109.89837 -0.23343,48.39015 0.60859,39.34484 0.1216,82.62295 -0.45,34.15 -0.36589,96.31047 0.93411,105.16047 2.83945,19.8761 -1.86629,24.59422 -1.86629,30.27894 0,2.1 -30.95041,-7.51073 -38.35041,-10.16073 z"
           id="path30"
           sodipodi:nodetypes="cccccccscccsc" />
      </g>
      <g
         fill="#0695b7"
         id="g38"
         transform="matrix(1,0,0,1.0096638,-2.6232049e-8,-0.00583601)">
        <path
           d="m 288,516.05 c 0,-0.8 0.55,-0.95 4.4,-1.25 8.45,-0.65 15.4,-2.05 36.35,-7.25 15.1,-3.75 23.95,-6.45 32.9,-10 4.05,-1.6 6.85,-2 6.85,-0.9 0,1.4 -20.65,8.25 -37.9,12.55 -17.75,4.45 -25.25,6 -33.6,7.05 -8.2,1 -9,1 -9,-0.2 z"
           id="path31" />
        <path
           d="m 370,495.3 c 0,-1.3 0.85,-1.8 3.05,-1.8 2.5,0 1.7,1.2 -1.75,2.5 -1.15,0.45 -1.3,0.35 -1.3,-0.7 z"
           id="path32" />
        <path
           d="m 376.5,492.35 c 0,-0.9 0.8,-1.5 4.25,-3.25 3.95,-1.95 7.25,-2.7 7.25,-1.65 0,0.45 -7.5,4.5 -10.15,5.5 -1.2,0.45 -1.35,0.4 -1.35,-0.6 z"
           id="path33" />
        <path
           d="m 389,485.8 c 0,-1.3 0.8,-1.8 3.05,-1.8 1.1,0 1.45,-0.25 1.45,-0.95 0,-0.55 0.45,-1.15 1.1,-1.35 0.6,-0.15 1.4,-0.65 1.8,-1 0.35,-0.4 1.2,-0.7 1.9,-0.7 0.75,0 1.2,-0.3 1.2,-0.75 0,-0.4 0.35,-0.75 0.75,-0.75 0.4,0 0.75,-0.2 0.75,-0.5 0,-0.25 0.55,-0.5 1.25,-0.5 0.8,0 1.25,-0.3 1.25,-0.75 0,-0.4 0.35,-0.75 0.75,-0.75 0.4,0 0.75,-0.2 0.75,-0.5 0,-0.25 0.55,-0.5 1.25,-0.5 0.8,0 1.25,-0.3 1.25,-0.75 0,-0.4 0.35,-0.75 0.75,-0.75 0.4,0 0.75,-0.2 0.75,-0.5 0,-0.25 0.35,-0.5 0.75,-0.5 0.4,0 0.75,-0.2 0.75,-0.5 0,-0.25 0.35,-0.5 0.75,-0.5 0.4,0 0.75,-0.2 0.75,-0.5 0,-0.25 0.35,-0.5 0.75,-0.5 0.4,0 0.75,-0.2 0.75,-0.5 0,-0.25 0.45,-0.5 1,-0.5 0.55,0 1,-0.35 1,-0.75 0,-0.4 0.35,-0.75 0.75,-0.75 0.4,0 0.75,-0.2 0.75,-0.5 0,-0.25 0.35,-0.5 0.75,-0.5 0.4,0 0.75,-0.2 0.75,-0.5 0,-0.25 0.45,-0.5 1,-0.5 0.55,0 1,-0.35 1,-0.75 0,-0.4 0.45,-0.75 1,-0.75 0.55,0 1,-0.35 1,-0.75 0,-0.45 0.45,-0.75 1.25,-0.75 0.9,0 1.25,-0.25 1.25,-1 0,-0.65 0.35,-1 1,-1 0.55,0 1,-0.35 1,-0.75 0,-0.4 0.4,-0.75 0.95,-0.75 0.5,0 1.05,-0.45 1.2,-1 0.15,-0.7 0.7,-1 1.55,-1 0.95,0 1.3,-0.25 1.3,-1 0,-0.75 0.35,-1 1.25,-1 0.85,0 1.25,-0.25 1.25,-0.9 0,-1.3 1,-2.1 2.55,-2.1 1.15,0 1.4,-0.25 1.55,-1.35 0.15,-1.2 0.4,-1.4 2.05,-1.55 1.65,-0.15 1.85,-0.3 1.85,-1.55 0,-1.9 1.5,-3.15 3.55,-2.95 1.6,0.15 1.6,0.2 -4.1,5.15 -13.5,11.8 -23.6,19.4 -37.2,27.85 -6.3,3.95 -14.9,8.9 -15.45,8.9 -0.15,0 -0.3,-0.55 -0.3,-1.2 z"
           id="path34" />
        <path
           d="m 456,434.95 c 0,-2.3 1.75,-4.1 3.8,-3.85 l 1.4,0.15 -2.6,2.75 -2.55,2.75 z"
           id="path35" />
        <path
           d="m 462.1,428.2 c 0.15,-1.7 0.3,-1.95 1.55,-2.1 1.15,-0.15 1.35,-0.4 1.35,-1.65 0,-1.1 0.25,-1.45 1,-1.45 0.75,0 1,-0.35 1,-1.3 0,-0.85 0.3,-1.4 1,-1.55 0.55,-0.15 1,-0.7 1,-1.25 0,-0.55 0.45,-1.1 1,-1.25 0.55,-0.15 1,-0.7 1,-1.25 0,-0.55 0.45,-1.1 1,-1.25 0.55,-0.15 1,-0.7 1,-1.2 0,-0.55 0.35,-0.95 0.75,-0.95 0.4,0 0.75,-0.45 0.75,-1 0,-0.55 0.25,-1 0.5,-1 0.3,0 0.5,-0.35 0.5,-0.75 0,-0.45 0.35,-0.9 0.75,-1.05 0.4,-0.2 0.75,-0.6 0.75,-1 0,-0.4 0.35,-0.7 0.75,-0.7 0.4,0 0.75,-0.45 0.75,-1 0,-0.55 0.25,-1 0.5,-1 0.3,0 0.5,-0.35 0.5,-0.75 0,-0.4 0.25,-0.75 0.5,-0.75 0.3,0 0.5,-0.35 0.5,-0.75 0,-0.4 0.25,-0.75 0.5,-0.75 0.3,0 0.5,-0.35 0.5,-0.75 0,-0.4 0.25,-0.75 0.5,-0.75 0.3,0 0.5,-0.35 0.5,-0.75 0,-0.4 0.35,-0.75 0.75,-0.75 0.45,0 0.75,-0.45 0.75,-1.25 0,-0.7 0.25,-1.25 0.5,-1.25 0.3,0 0.5,-0.35 0.5,-0.75 0,-0.4 0.35,-0.75 0.75,-0.75 0.45,0 0.75,-0.45 0.75,-1.25 0,-0.7 0.25,-1.25 0.5,-1.25 0.3,0 0.5,-0.3 0.5,-0.7 0,-0.4 0.3,-1.05 0.65,-1.4 0.35,-0.35 0.95,-1.4 1.3,-2.25 0.4,-1.05 1,-1.65 1.6,-1.65 0.7,0 0.95,-0.35 0.95,-1.5 0,-2.35 1.5,-5 2.85,-5 0.65,0 1.15,0.15 1.15,0.3 0,1.7 -12.15,21.55 -18.4,30.15 -4.2,5.75 -14.3,18.3 -15.2,18.85 -0.25,0.2 -0.4,-0.55 -0.3,-1.6 z"
           id="path36" />
        <path
           d="m 496.5,376.55 c 0,-1.9 1.45,-5.05 2.35,-5.05 0.4,0 0.65,-0.65 0.65,-1.7 0,-0.95 0.35,-2.05 0.75,-2.5 0.4,-0.4 0.75,-1.2 0.75,-1.75 0,-0.55 0.3,-1.3 0.65,-1.65 0.4,-0.35 0.85,-1.5 1.05,-2.55 0.2,-1 0.55,-1.85 0.75,-1.85 0.25,0 0.55,-0.9 0.75,-2 0.15,-1.1 0.55,-2 0.8,-2 0.3,0 0.5,-0.55 0.5,-1.25 0,-0.7 0.25,-1.25 0.5,-1.25 0.3,0 0.5,-0.4 0.5,-0.9 0,-0.5 1.25,-4.6 2.75,-9.1 5.35,-15.85 8.25,-28.05 9.05,-37.65 0.3,-3.85 0.45,-4.35 1.3,-4.35 0.95,0 1,0.25 0.65,3.65 -1.1,12 -3.75,23.35 -9.4,40.1 -4.9,14.6 -12.4,32.7 -13.7,33.15 -0.45,0.1 -0.65,-0.35 -0.65,-1.35 z"
           id="path37" />
        <path
           d="m 518.9,295.25 c -0.15,-1.55 -3.95,-5.55 -38.65,-40.35 -32.2,-32.3 -39.05,-39.4 -41.65,-43.25 -2.55,-3.75 -6.9,-8.3 -24.85,-26 -20.7,-20.35 -26.3,-26.2 -31.2,-32.75 -1.71171,-2.56817 -1.57751,-2.35256 -3.16493,-4.57838 C 380.47775,147.3856 387.95,140.6 401.4,127.5 c 12.3,-11.95 21.05,-20.1 21.8,-20.3 0.7,-0.15 1.85,-0.15 2.55,0 0.65,0.15 4.4,3.2 8.35,6.7 26.75,23.9 49.3,48.9 63.2,70.05 9.75,14.9 17.1,34 20.9,54.35 2.55,13.55 3.05,19.7 3.05,37.95 -0.05,9.35 -0.2,17.85 -0.4,18.9 -0.5,2.4 -1.75,2.5 -1.95,0.1 z"
           id="path38"
           sodipodi:nodetypes="ccccccccccccccc" />
      </g>
      <g
         fill="#53833e"
         id="g39"
         transform="matrix(1,0,0,1.0096638,-2.6232049e-8,-0.00583601)">
        <path
           d="m 239,517.5 c 0,-0.3 -1.65,-0.5 -3.9,-0.5 -4.2,0 -19.05,-1.8 -28.85,-3.5 -3.3,-0.6 -6.8,-1.2 -7.75,-1.35 -2.9,-0.5 -3,-0.75 -1.9,-5.05 0.55,-2.1 1.2,-6.55 1.45,-9.85 0.25,-3.3 0.65,-62.25 0.95,-131 0.29153,-80.171 -0.4339,-164.38056 0.12603,-179.77866 57.14009,-51.02611 67.92724,-57.78095 110.96523,-103.795818 5.38522,-0.370894 65.95215,64.727748 70.48989,64.727748 -3.09843,3.16081 -4.67939,7.5538 -10.73115,13.64673 -5.55,5.6 -12.05,11.95 -14.35,14.05 -2.35,2.1 -5.1,5.05 -6.2,6.5 -1.05,1.45 -3,3.55 -4.3,4.65 -1.3,1.1 -4.85,4.8 -7.9,8.25 -5.2,5.9 -80,81.25 -89.1,89.75 -2.35,2.2 -7.4,6.8 -11.25,10.25 -7.95,7.05 -9.75,8.9 -9.75,10.05 0,1.45 0.05,1.5 16.5,17.25 3.45,3.3 10.2,9.75 15,14.3 9.55,9.05 12.95,12.7 19.7,21.1 14.93589,13.27812 10.30907,50.46631 10.85,76.05 0.45,23.75 0.4,32.65 -0.1,45.75 -0.4,8.95 -0.65,21.15 -0.65,27.15 l 0.1,10.85 h -4.2 c -2.45,0 -4.2,0.2 -4.2,0.5 0,0.35 -7.15,0.5 -20.5,0.5 -13.35,0 -20.5,-0.15 -20.5,-0.5 z"
           id="path39"
           sodipodi:nodetypes="sscccscccccccscccscccccccssss" />
      </g>
      <g
         fill="#016175"
         id="g70"
         transform="matrix(1,0,0,1.0096638,-2.6232049e-8,-0.00583601)">
        <path
           d="m 287.5,516 c 0,-0.8 0.35,-1 1.75,-1 2,0 2.45,1.2 0.65,1.7 -1.9,0.5 -2.4,0.35 -2.4,-0.7 z"
           id="path40" />
        <path
           d="m 293,515.5 c 0,-0.8 0.35,-1 1.75,-1 2,0 2.45,1.2 0.65,1.7 -1.9,0.5 -2.4,0.35 -2.4,-0.7 z"
           id="path41" />
        <path
           d="m 297.5,515.1 c 0,-0.8 0.65,-1.05 4.15,-1.5 5.3,-0.75 5.85,-0.75 5.85,0.15 0,0.4 -0.65,0.8 -1.6,0.95 -0.9,0.15 -3,0.5 -4.6,0.8 -3.85,0.65 -3.8,0.65 -3.8,-0.4 z"
           id="path42" />
        <path
           d="m 286.8,512.9 c -0.6,-2.25 -0.35,-3.4 0.7,-3.4 0.85,0 1,0.35 1,2.25 0,2.45 -1.15,3.2 -1.7,1.15 z"
           id="path43" />
        <path
           d="m 311.5,512.5 c 0,-0.8 0.35,-1 1.75,-1 2,0 2.45,1.2 0.65,1.7 -1.9,0.5 -2.4,0.35 -2.4,-0.7 z"
           id="path44" />
        <path
           d="m 343.5,504.55 c 0,-1 1.25,-1.55 3.65,-1.55 2.05,0 1.65,1.25 -0.6,1.9 -2.6,0.8 -3.05,0.75 -3.05,-0.35 z"
           id="path45" />
        <path
           d="m 355.5,500.75 c 0,-1.1 0.2,-1.25 1.8,-1.25 2.2,0 2.1,0.9 -0.2,1.85 -1.55,0.65 -1.6,0.6 -1.6,-0.6 z"
           id="path46" />
        <path
           d="m 286.5,497.15 c 0,-3.1 0.45,-4.65 1.3,-4.65 0.55,0 0.7,0.85 0.7,3.5 0,3.15 -0.1,3.5 -1,3.5 -0.85,0 -1,-0.35 -1,-2.35 z"
           id="path47" />
        <path
           d="m 366,496.75 c 0,-1.2 1.1,-1.75 3.65,-1.75 2.55,0 1.2,1.55 -2.2,2.5 -1.3,0.4 -1.45,0.3 -1.45,-0.75 z"
           id="path48" />
        <path
           d="m 287,488.15 c 0,-2.65 0.5,-4.15 1.3,-4.15 0.5,0 0.7,0.8 0.7,3 0,2.65 -0.1,3 -1,3 -0.8,0 -1,-0.35 -1,-1.85 z"
           id="path49" />
        <path
           d="m 392.5,483.75 c 0,-1.1 0.2,-1.25 1.75,-1.25 2.15,0 2.2,0.5 0.3,1.65 -1.9,1.1 -2.05,1.1 -2.05,-0.4 z"
           id="path50" />
        <path
           d="m 398.5,480.25 c 0,-1.1 0.2,-1.25 1.75,-1.25 2.15,0 2.2,0.5 0.3,1.65 -1.9,1.1 -2.05,1.1 -2.05,-0.4 z"
           id="path51" />
        <path
           d="m 287.5,476.15 c 0,-5.05 0.35,-6.65 1.3,-6.65 0.55,0 0.7,1.15 0.7,5.5 0,5.15 -0.05,5.5 -1,5.5 -0.9,0 -1,-0.35 -1,-4.35 z"
           id="path52" />
        <path
           d="m 287.8,446.9 c -0.15,-0.65 -0.3,-4.8 -0.3,-9.25 0,-7.8 0.05,-8.15 1,-8.15 0.95,0 1,0.35 1,9.25 0,7.55 -0.15,9.25 -0.7,9.25 -0.35,0 -0.8,-0.5 -1,-1.1 z"
           id="path53" />
        <path
           d="m 444.5,446.05 c 0,-1.45 0.15,-1.55 1.8,-1.55 1.95,0 1.9,0.45 -0.3,2 l -1.5,1.05 z"
           id="path54" />
        <path
           d="m 455.5,435.3 c 0,-1.65 0.1,-1.8 1.55,-1.8 h 1.5 l -1.05,1.5 c -1.55,2.2 -2,2.25 -2,0.3 z"
           id="path55" />
        <path
           d="m 464.5,425.3 c 0,-1.65 0.1,-1.8 1.55,-1.8 h 1.5 l -1.05,1.5 c -1.55,2.2 -2,2.25 -2,0.3 z"
           id="path56" />
        <path
           d="m 287.3,416.4 c -0.15,-0.65 -0.3,-2.45 -0.3,-4 0,-2.55 0.1,-2.9 1,-2.9 0.9,0 1,0.35 1,4 0,3.05 -0.15,4 -0.7,4 -0.35,0 -0.8,-0.5 -1,-1.1 z"
           id="path57" />
        <path
           d="m 474,413.3 c 0,-1.65 0.1,-1.8 1.55,-1.8 h 1.5 L 476,413 c -1.55,2.2 -2,2.25 -2,0.3 z"
           id="path58" />
        <path
           d="m 478,407.8 c 0,-1.65 0.1,-1.8 1.55,-1.8 h 1.5 l -1.05,1.5 c -1.55,2.2 -2,2.25 -2,0.3 z"
           id="path59" />
        <path
           d="m 286.8,401.4 c -0.15,-0.65 -0.3,-2.55 -0.3,-4.25 0,-2.8 0.1,-3.15 1,-3.15 0.9,0 1,0.35 1,4.25 0,3.3 -0.15,4.25 -0.7,4.25 -0.35,0 -0.8,-0.5 -1,-1.1 z"
           id="path60" />
        <path
           d="m 286.3,390.4 c -0.15,-0.65 -0.3,-2.2 -0.3,-3.5 0,-2.05 0.15,-2.4 1,-2.4 0.9,0 1,0.35 1,3.5 0,2.65 -0.15,3.5 -0.7,3.5 -0.35,0 -0.8,-0.5 -1,-1.1 z"
           id="path61" />
        <path
           d="m 490.5,387.75 c 0,-1.55 0.15,-1.75 1.25,-1.75 1.5,0 1.5,0.15 0.4,2.05 -1.15,1.9 -1.65,1.85 -1.65,-0.3 z"
           id="path62" />
        <path
           d="M 277.05,359.15 C 270,350.35 266.7,346.8 257,337.6 c -23.55,-22.3 -30.5,-29.1 -31.35,-30.8 -0.95,-1.85 -0.5,-4.15 1.25,-6.05 0.75,-0.85 4.5,-4.35 8.35,-7.75 3.85,-3.45 8.9,-8.05 11.25,-10.25 9.1,-8.5 83.9,-83.85 89.1,-89.75 3.05,-3.45 6.6,-7.15 7.9,-8.25 1.3,-1.1 3.25,-3.2 4.3,-4.65 1.1,-1.45 3.75,-4.3 5.95,-6.35 5.5,-5.05 15.1,-14.55 20.6,-20.25 3.77057,-3.75523 4.18018,-4.35284 6.15355,-6.14816 6.15,8.7 11.83573,14.65628 34.48573,36.95628 11.62959,12.0773 20.80688,17.68166 22.27879,22.04369 -4.03744,3.23291 -4.06048,3.27623 -11.92879,11.40631 -9.05,9.6 -26.35,26.65 -35.6,35.2 -9.3,8.6 -15.83928,15.94188 -21.28928,23.54188 -5.1,7.15 -26.55,29.5 -36.2,37.7 -23.48599,32.00698 -17.9217,24.59995 -46.9052,55.67652 z"
           id="path63"
           sodipodi:nodetypes="cccccccscccccccccccc" />
        <path
           d="m 495.5,378.4 c 0,-2.15 0.6,-3.05 1.9,-2.8 l 1.05,0.15 -0.95,2.15 c -1.15,2.5 -2,2.7 -2,0.5 z"
           id="path64" />
        <path
           d="m 502,363.8 c 0,-1.6 0.15,-1.8 1.25,-1.8 1.2,0 1.25,0.05 0.6,1.6 -0.95,2.3 -1.85,2.4 -1.85,0.2 z"
           id="path65" />
        <path
           d="m 506,353.3 c 0,-1.6 0.15,-1.8 1.25,-1.8 1.2,0 1.25,0.05 0.6,1.6 -0.95,2.3 -1.85,2.4 -1.85,0.2 z"
           id="path66" />
        <path
           d="m 512,335.25 c 0,-0.95 0.25,-1.75 0.5,-1.75 0.3,0 0.5,-0.8 0.5,-1.75 0,-1.4 0.2,-1.75 1,-1.75 1.2,0 1.2,0.2 0.15,4 -0.9,3.4 -2.15,4.1 -2.15,1.25 z"
           id="path67" />
        <path
           d="m 515.65,322.15 c 0.1,-1.05 0.65,-4.2 1.15,-7 0.75,-4.25 1.1,-5.15 1.8,-5.15 1.05,0 1.05,-0.05 0.4,3.8 -1.3,7.4 -2.05,10.2 -2.85,10.2 -0.6,0 -0.7,-0.4 -0.5,-1.85 z"
           id="path68" />
        <path
           d="m 518,291.45 c 0,-1.45 0.1,-1.5 0.9,-0.9 1.95,1.55 2.1,2.45 0.35,2.45 -1.05,0 -1.25,-0.25 -1.25,-1.55 z"
           id="path69" />
        <path
           d="m 496.15,271.25 c -0.35,-0.4 -0.65,-1.05 -0.65,-1.5 0,-0.45 -0.45,-0.75 -1.05,-0.75 -0.6,0 -1.15,-0.4 -1.3,-1 -0.15,-0.55 -0.5,-1 -0.85,-1 -0.75,0 -17.3,-16.6 -17.3,-17.4 0,-0.3 -0.25,-0.6 -0.55,-0.6 -0.95,0 -1.95,-1.4 -1.95,-2.7 0,-1.1 -0.2,-1.3 -1.5,-1.3 -1.4,0 -1.5,-0.15 -1.5,-1.85 0,-1.9 0,-1.9 15.25,13.35 8.4,8.4 15.25,15.3 15.25,15.35 0,0.5 -3.35,-0.05 -3.85,-0.6 z"
           id="path70" />
      </g>
      <g
         fill="#01517c"
         id="g84"
         transform="matrix(1,0,0,1.0096638,-2.6232049e-8,-0.00583601)">
        <path
           d="m 381,489.75 c 0,-0.9 0.25,-1.25 0.95,-1.25 0.55,0 1.05,-0.2 1.15,-0.45 0.25,-0.65 5.25,-3.05 6.4,-3.05 0.55,0 1,-0.3 1,-0.7 0,-0.85 1.1,-1.3 3.05,-1.3 1.1,0 1.45,-0.25 1.45,-1 0,-0.75 0.35,-1 1.25,-1 0.8,0 1.25,-0.3 1.25,-0.75 0,-0.45 0.45,-0.75 1.25,-0.75 0.8,0 1.25,-0.3 1.25,-0.75 0,-0.45 0.45,-0.75 1.25,-0.75 0.8,0 1.25,-0.3 1.25,-0.75 0,-0.4 0.35,-0.75 0.75,-0.75 0.4,0 0.75,-0.2 0.75,-0.5 0,-0.25 0.35,-0.5 0.75,-0.5 0.4,0 0.75,-0.2 0.75,-0.5 0,-0.25 0.55,-0.6 1.25,-0.8 0.7,-0.15 1.25,-0.5 1.25,-0.75 0,-0.25 0.35,-0.45 0.75,-0.45 0.4,0 0.75,-0.2 0.75,-0.5 0,-0.25 0.35,-0.5 0.75,-0.5 0.4,0 0.75,-0.2 0.75,-0.5 0,-0.25 0.35,-0.5 0.75,-0.5 0.4,0 0.75,-0.2 0.75,-0.5 0,-0.25 0.35,-0.5 0.75,-0.5 0.4,0 0.75,-0.2 0.75,-0.5 0,-0.25 0.45,-0.5 1,-0.5 0.55,0 1,-0.35 1,-0.75 0,-0.4 0.35,-0.75 0.75,-0.75 0.4,0 0.75,-0.2 0.75,-0.5 0,-0.25 0.35,-0.5 0.75,-0.5 0.4,0 0.75,-0.2 0.75,-0.5 0,-0.25 0.45,-0.5 1,-0.5 0.6,0 1,-0.35 1,-0.8 0,-0.45 0.45,-0.9 0.95,-1.05 0.55,-0.15 1.1,-0.55 1.25,-0.95 0.15,-0.4 0.75,-0.7 1.3,-0.7 0.55,0 1,-0.35 1,-0.75 0,-0.4 0.4,-0.75 0.95,-0.75 0.5,0 1.05,-0.45 1.2,-1 0.15,-0.55 0.7,-1 1.25,-1 0.55,0 1.1,-0.45 1.25,-1 0.15,-0.55 0.7,-1 1.25,-1 0.55,0 1.1,-0.45 1.25,-1 0.2,-0.7 0.7,-1 1.75,-1 1.3,0 1.55,-0.2 1.7,-1.35 0.1,-1.15 0.4,-1.45 1.8,-1.55 1.3,-0.15 1.6,-0.4 1.6,-1.3 0,-1.7 1.6,-2.9 3.55,-2.7 l 1.65,0.15 -5.2,4.55 c -12.65,10.95 -27.45,21.55 -42.6,30.4 -6.75,3.9 -15,8.3 -15.65,8.3 -0.15,0 -0.25,-0.55 -0.25,-1.25 z"
           id="path72" />
        <path
           d="m 286.75,510.8 c -0.25,-4 -0.1,-11.65 0.45,-21.4 1.15,-21.3 0.95,-63.85 -0.45,-93.15 -0.9,-18.4 -1.32266,-12.72809 -1.81231,-27.02628 17.33735,-22.007 28.8561,-36.20791 45.81231,-56.52372 l 35.15907,-35.48275 c 1.4,9.75 2.84093,28.93275 1.84093,42.58275 -1,13.6 -0.9,26.75 0.5,63.7 0.6,14.6 0.9,34.3 0.95,57.25 0.05,34.95 -0.25,43.75 -1.75,49.4 -0.6,2.2 -0.6,2.45 0.4,3.4 l 1,1.05 3.9,-1.8 c 5.85,-2.7 9.6,-2.25 4.15,0.5 -9.4,4.75 -28,11.1 -45.15,15.4 -20.65,5.15 -28.75,6.75 -37.5,7.55 -1.9,0.15 -4.3,0.4 -5.3,0.55 l -1.85,0.25 z"
           id="path71"
           sodipodi:nodetypes="ccccccccccccscccccc" />
        <path
           d="m 445,445.65 c 0,-1.95 4.7,-6.65 6.65,-6.65 1.15,0 1.35,-0.2 1.35,-1.4 0,-1.95 1.95,-3.75 3.8,-3.5 1.4,0.15 1.3,0.3 -3.8,5.6 -2.9,2.95 -5.85,5.85 -6.6,6.4 l -1.4,0.95 z"
           id="path73" />
        <path
           d="m 460,430.4 c 0,-1.85 1.2,-3.4 2.65,-3.4 0.5,0 0.85,-0.5 0.95,-1.35 0.1,-1 0.45,-1.45 1.25,-1.55 0.75,-0.1 1.15,-0.55 1.25,-1.5 0.1,-0.95 0.5,-1.4 1.3,-1.5 0.8,-0.15 1.1,-0.5 1.1,-1.4 0,-0.75 0.3,-1.2 0.75,-1.2 0.45,0 0.75,-0.45 0.75,-1.05 0,-0.6 0.4,-1.15 1,-1.3 0.55,-0.15 1,-0.7 1,-1.2 0,-0.55 0.35,-1.1 0.75,-1.25 0.4,-0.2 0.75,-0.6 0.75,-1 0,-0.4 0.35,-0.7 0.75,-0.7 0.4,0 0.75,-0.45 0.75,-1 0,-0.55 0.35,-1 0.75,-1 0.4,0 0.75,-0.45 0.75,-1 0,-0.55 0.25,-1 0.5,-1 0.3,0 0.5,-0.35 0.5,-0.75 0,-0.4 0.35,-0.75 0.75,-0.75 0.4,0 0.75,-0.45 0.75,-1 0,-0.55 0.25,-1 0.5,-1 0.3,0 0.5,-0.35 0.5,-0.75 0,-0.4 0.25,-0.75 0.5,-0.75 0.3,0 0.5,-0.35 0.5,-0.75 0,-0.4 0.25,-0.75 0.5,-0.75 0.3,0 0.5,-0.35 0.5,-0.75 0,-0.4 0.2,-0.75 0.45,-0.75 0.25,0 0.6,-0.55 0.75,-1.25 0.2,-0.7 0.55,-1.25 0.8,-1.25 0.3,0 0.5,-0.35 0.5,-0.75 0,-0.4 0.25,-0.75 0.5,-0.75 0.3,0 0.5,-0.3 0.5,-0.7 0,-0.4 0.3,-1.05 0.7,-1.4 0.35,-0.4 0.85,-1.2 1,-1.8 0.2,-0.6 0.55,-1.1 0.8,-1.1 0.2,0 0.55,-0.55 0.7,-1.25 0.2,-0.8 0.65,-1.25 1.3,-1.25 0.75,0 1,-0.35 1,-1.5 0,-2.05 1,-4 2.1,-4 0.65,0 0.9,-0.4 0.9,-1.5 0,-2.3 1,-4 2.3,-4 1.5,0 1.35,0.4 -3.45,9.1 -4.9,8.8 -9.25,15.75 -14.6,23.15 -4.45,6.2 -15.35,19.8 -17.2,21.45 -1.05,0.95 -1.05,0.95 -1.05,-0.8 z"
           id="path74" />
        <path
           d="m 497.5,374 c 0,-1.6 1.45,-5 2.1,-5 0.2,0 0.4,-0.55 0.4,-1.2 0,-0.7 0.35,-1.55 0.75,-2 0.4,-0.4 0.75,-1.2 0.75,-1.75 0,-0.6 0.25,-1.05 0.5,-1.05 0.3,0 0.5,-0.55 0.5,-1.25 0,-0.7 0.2,-1.25 0.45,-1.25 0.25,0 0.55,-0.9 0.75,-2 0.15,-1.1 0.5,-2 0.75,-2 0.25,0 0.55,-0.9 0.75,-2 0.15,-1.1 0.55,-2 0.8,-2 0.3,0 0.5,-0.4 0.5,-0.9 0,-0.5 0.9,-3.6 2,-6.85 4.45,-13.15 7.95,-26.15 8.8,-32.6 0.25,-2.2 0.5,-2.65 1.3,-2.65 0.9,0 0.95,0.25 0.65,2.15 -2.15,13.6 -7.45,31.55 -15.1,50.85 -4.85,12.3 -6.65,15.4 -6.65,11.5 z"
           id="path75" />
        <path
           d="m 518,307 c 0,-1.65 0.15,-2 1,-2 1.05,0 1.25,0.8 0.7,2.9 -0.55,1.95 -1.7,1.35 -1.7,-0.9 z"
           id="path76" />
        <path
           d="m 518.5,301.5 c 0,-2.15 0.15,-2.5 1,-2.5 0.75,0 1,0.35 1,1.4 0,2.1 -0.55,3.6 -1.3,3.6 -0.5,0 -0.7,-0.7 -0.7,-2.5 z"
           id="path77" />
        <path
           d="m 506.4,281.6 c -6.85,-6.85 -12.4,-12.65 -12.4,-12.95 0,-0.3 -0.45,-0.65 -1,-0.8 -0.75,-0.2 -1,-0.7 -1,-1.85 0,-1.45 0.1,-1.55 0.9,-0.95 0.45,0.4 6.85,6.65 14.25,13.9 12.6,12.5 14.7,15.05 12.5,15.05 -0.5,0 -6.45,-5.6 -13.25,-12.4 z"
           id="path78" />
        <path
           d="m 390.25,249.65 2.5,-2.3 0.15,1.35 c 0.25,1.95 -1.15,3.3 -3.35,3.3 l -1.8,-0.05 z"
           id="path79" />
        <path
           d="m 463.6,238.85 c -10.5,-10.45 -11.15,-11.25 -11,-12.8 0.15,-1.6 0.35,-1.4 11.9,10.3 14.1,14.25 13.6,13.65 11.7,13.65 -1.2,-0.05 -3.3,-1.9 -12.6,-11.15 z"
           id="path80" />
        <path
           d="m 396.5,243.9 c 3.15,-2.95 3.25,-3 3.4,-1.75 0.25,2.05 -2.55,4.85 -4.85,4.85 l -1.8,-0.05 z"
           id="path81" />
        <path
           d="m 407.75,233 4,-4.05 0.15,1.6 c 0.15,1.35 -0.2,2 -2.2,4 -2,2 -2.75,2.45 -4.15,2.45 h -1.8 z"
           id="path82" />
        <path
           d="m 418.9,221.65 c 0.55,-0.8 1.6,-1.95 2.3,-2.6 l 1.3,-1.2 v 1.75 c 0,2.05 -1.25,3.4 -3.2,3.4 h -1.35 z"
           id="path83" />
      </g>
      <g
         fill="#062e51"
         id="g85"
         transform="matrix(1,0,0,1.0096638,-2.6232049e-8,-0.00583601)">
        <path
           d="m 366.5,495.25 -1.7,-1.75 0.65,-2.9 c 0.35,-1.55 0.8,-3.75 1.05,-4.85 0.25,-1.1 0.7,-7.15 1.05,-13.5 0.85,-16.25 0.15,-73.35 -1.3,-100.75 -0.1,-2.6 -0.4,-12.95 -0.55,-23 -0.3,-15.1 -0.66631,-9.46442 -1.31537,-30.25 -0.64906,-20.78558 -0.9224,-37.84334 0.51537,-40 0.15,-0.25 1.4,-2.05 2.8,-4 5.85,-8.15 11.7,-14.4 24.75,-26.4 4.8,-4.45 13.15,-12.6 18.55,-18.1 17.8,-18.25 19.55,-19.9 22.95,-21.7 l 3.25,-1.7 0.75,1.2 c 3.85,5.9 10.7,13.15 44.55,47.1 36.8,37 37.75,38 37.9,40 0.25,2.8 -0.75,14 -1.7,19.55 -2.95,17.25 -12.2,44.6 -21.45,63.55 -15.55,31.75 -39.35,60.5 -69.55,84.05 -16.25,12.65 -35.55,24.4 -53.25,32.45 -3.35,1.5 -6.15,2.75 -6.15,2.75 -0.05,0 -0.85,-0.8 -1.8,-1.75 z"
           id="path85"
           sodipodi:nodetypes="cccsccczccccccccccccccc" />
      </g>
    </g>
  </g>
</svg>
