[{
  "_id": {
    "$oid": "6631afe2eeca0cfe4f43be36"
  },
  "nombre": "Museo El Castillo",
  "descripcion": "Un castillo medieval con jardines y vistas panorámicas."
},
{
  "_id": {
    "$oid": "6631afe2eeca0cfe4f43be34"
  },
  "nombre": "Parque Explora",
  "descripcion": "Un museo interactivo con acuario, planetario y exposiciones científicas.",
  "pagina_web": "http://www.parqueexplora.org/"
},
{
  "_id": {
    "$oid": "6631afe2eeca0cfe4f43be40"
  },
  "nombre": "Parque Arví",
  "descripcion": "Un bosque natural con senderos, cascadas y fauna silvestre."
},
{
  "_id": {
    "$oid": "6631afe2eeca0cfe4f43be51"
  },
  "nombre": "Tour gastronómico",
  "descripcion": "Saborea la deliciosa gastronomía local."
},
{
  "_id": {
    "$oid": "6631afe2eeca0cfe4f43be38"
  },
  "nombre": "Plaza Botero",
  "descripcion": "Admira las esculturas de bronce del maestro Fernando Botero.",
  "pagina_web": "https://comunasdemedellin.com/fernando-botero-y-la-plaza-botero-un-legado-artistico-en-medellin/"
},
{
  "_id": {
    "$oid": "6631afe2eeca0cfe4f43be39"
  },
  "nombre": "Jardín Botánico de Medellín",
  "descripcion": "Un oasis verde con flora y fauna de la región."
},
{
  "_id": {
    "$oid": "6631afe2eeca0cfe4f43be3c"
  },
  "nombre": "Metrocable",
  "descripcion": "Disfruta de vistas panorámicas de la ciudad desde el teleférico."
},
{
  "_id": {
    "$oid": "6631afe2eeca0cfe4f43be4a"
  },
  "nombre": "Iglesia de San Antonio de Padua",
  "descripcion": "Un templo con una hermosa fachada neogótica."
},
{
  "_id": {
    "$oid": "6631afe2eeca0cfe4f43be52"
  },
  "nombre": "Clase de salsa",
  "descripcion": "Aprende a bailar salsa, el ritmo de Colombia."
},
{
  "_id": {
    "$oid": "6631afe2eeca0cfe4f43be42"
  },
  "nombre": "Parque de los Pies Descalzos",
  "descripcion": "Un espacio para la relajación y el contacto con la naturaleza.",
  "pagina_web": "http://www.facebook.com/pages/parque-de-los-deseos/266081363550657"
},
{
  "_id": {
    "$oid": "6631afe2eeca0cfe4f43be4c"
  },
  "nombre": "Monumento a los Héroes de la Independencia",
  "descripcion": "Un tributo a los próceres de la independencia."
},
{
  "_id": {
    "$oid": "6631afe2eeca0cfe4f43be3e"
  },
  "nombre": "Parque Natural Cerro El Volador",
  "descripcion": "Sube en parapente y disfruta de las vistas.",
  "pagina_web": "http://parquenaturalcerroelvolador.blogspot.com.co/"
},
{
  "_id": {
    "$oid": "6631afe2eeca0cfe4f43be37"
  },
  "nombre": "Casa Museo Pedro Claver",
  "descripcion": "Homenaje al jesuita Pedro Claver, 'el Apóstol de los Negros'."
},
{
  "_id": {
    "$oid": "6631afe2eeca0cfe4f43be49"
  },
  "nombre": "Basílica Menor de Nuestra Señora de La Candelaria",
  "descripcion": "Un santuario religioso con arquitectura colonial."
},
{
  "_id": {
    "$oid": "6631afe2eeca0cfe4f43be45"
  },
  "nombre": "Piedra del Peñol",
  "descripcion": "Sube los 740 escalones para disfrutar de la vista panorámica."
},
{
  "_id": {
    "$oid": "6631afe2eeca0cfe4f43be48"
  },
  "nombre": "Catedral Basílica Metropolitana de Medellín",
  "descripcion": "Un imponente templo religioso."
},
{
  "_id": {
    "$oid": "6631afe2eeca0cfe4f43be3b"
  },
  "nombre": "Comuna 13",
  "descripcion": "Recorre los coloridos barrios y conoce la transformación social de la zona."
},
{
  "_id": {
    "$oid": "6631afe2eeca0cfe4f43be44"
  },
  "nombre": "Laguna de Guatapé",
  "descripcion": "Un embalse con paisajes impresionantes y actividades acuáticas."
},
{
  "_id": {
    "$oid": "6631afe2eeca0cfe4f43be4f"
  },
  "nombre": "Tour de Pablo Escobar",
  "descripcion": "Recorre los lugares relacionados con el narcotraficante."
},
{
  "_id": {
    "$oid": "6631afe2eeca0cfe4f43be3a"
  },
  "nombre": "Parque Lleras",
  "descripcion": "Zona rosa con restaurantes, bares y discotecas."
},
{
  "_id": {
    "$oid": "6631afe2eeca0cfe4f43be4d"
  },
  "nombre": "Monumento a Francisco de Paula Santander",
  "descripcion": "Homenaje al prócer de la independencia."
},
{
  "_id": {
    "$oid": "6631afe2eeca0cfe4f43be3f"
  },
  "nombre": "Parques del Río Medellín",
  "descripcion": "Recorre el río en bicicleta o a pie.",
  "pagina_web": "https://maps.google.com/?cid=16176617132349094519"
},
{
  "_id": {
    "$oid": "6631afe2eeca0cfe4f43be50"
  },
  "nombre": "Tour de degustación de café",
  "descripcion": "Descubre el proceso del café y degusta diferentes variedades."
},
{
  "_id": {
    "$oid": "6631afe2eeca0cfe4f43be35"
  },
  "nombre": "Museo de Antioquia",
  "descripcion": "Un recorrido por la historia y la cultura de Antioquia."
},
{
  "_id": {
    "$oid": "6631afe2eeca0cfe4f43be4b"
  },
  "nombre": "Monumento a La Madre",
  "descripcion": "Un homenaje a las madres colombianas."
},
{
  "_id": {
    "$oid": "6631afe2eeca0cfe4f43be3d"
  },
  "nombre": "Pueblito Paisa",
  "descripcion": "Un pueblo típico antioqueño dentro de la ciudad."
},
{
  "_id": {
    "$oid": "6631afe2eeca0cfe4f43be41"
  },
  "nombre": "Jardín Botánico Joaquín Antonio Uribe",
  "descripcion": "Un oasis verde con flora y fauna exótica."
},
{
  "_id": {
    "$oid": "6631afe2eeca0cfe4f43be53"
  },
  "nombre": "Visita a una finca cafetera",
  "descripcion": "Experimenta la vida rural en una finca cafetera."
},
{
  "_id": {
    "$oid": "6631afe2eeca0cfe4f43be46"
  },
  "nombre": "Valle de Aburrá",
  "descripcion": "Recorre el valle y sus municipios pintorescos."
},
{
  "_id": {
    "$oid": "6631afe2eeca0cfe4f43be4e"
  },
  "nombre": "Tour de grafiti por la Comuna 13",
  "descripcion": "Conoce la historia y el arte urbano de la comuna."
},
{
  "_id": {
    "$oid": "6631afe2eeca0cfe4f43be43"
  },
  "nombre": "Cueva de la Vaca",
  "descripcion": "Un sitio arqueológico con pinturas rupestres."
},
{
  "_id": {
    "$oid": "6631afe2eeca0cfe4f43be47"
  },
  "nombre": "Reserva Natural Nativa Cuchilla del Escobero",
  "descripcion": "Un ecosistema único con flora y fauna endémica."
}]